{
  "ref": {
    "genesis": "ot/gen", "gen": "ot/gen",
    "exodus": "ot/ex", "ex": "ot/ex",
    "leviticus": "ot/lev", "lev": "ot/lev",
    "numbers": "ot/num", "num": "ot/num",
    "deuteronomy": "ot/deut", "deut": "ot/deut",
    "joshua": "ot/josh", "josh": "ot/josh",
    "judges": "ot/judg", "judg": "ot/judg",
    "ruth": "ot/ruth", "ruth": "ot/ruth",
    "1 samuel": "ot/1-sam", "1 sam": "ot/1-sam",
    "2 samuel": "ot/2-sam", "2 sam": "ot/2-sam",
    "1 kings": "ot/1-kgs", "1 kgs": "ot/1-kgs",
    "2 kings": "ot/2-kgs", "2 kgs": "ot/2-kgs",
    "1 chronicles": "ot/1-chr", "1 chr": "ot/1-chr",
    "2 chronicles": "ot/2-chr", "2 chr": "ot/2-chr",
    "ezra": "ot/ezra", "ezra": "ot/ezra",
    "nehemiah": "ot/neh", "neh": "ot/neh",
    "esther": "ot/esth", "esth": "ot/esth",
    "job": "ot/job", "job": "ot/job",
    "psalms": "ot/ps", "ps": "ot/ps",
    "proverbs": "ot/prov", "prov": "ot/prov",
    "ecclesiastes": "ot/eccl", "eccl": "ot/eccl",
    "song of solomon": "ot/song", "song": "ot/song",
    "isaiah": "ot/isa", "isa": "ot/isa",
    "jeremiah": "ot/jer", "jer": "ot/jer",
    "lamentations": "ot/lam", "lam": "ot/lam",
    "ezekiel": "ot/ezek", "ezek": "ot/ezek",
    "daniel": "ot/dan", "dan": "ot/dan",
    "hosea": "ot/hosea", "hosea": "ot/hosea",
    "joel": "ot/joel", "joel": "ot/joel",
    "amos": "ot/amos", "amos": "ot/amos",
    "obadiah": "ot/obad", "obad": "ot/obad",
    "jonah": "ot/jonah", "jonah": "ot/jonah",
    "micah": "ot/micah", "micah": "ot/micah",
    "nahum": "ot/nahum", "nahum": "ot/nahum",
    "habakkuk": "ot/hab", "hab": "ot/hab",
    "zephaniah": "ot/zeph", "zeph": "ot/zeph",
    "haggai": "ot/hag", "hag": "ot/hag",
    "zechariah": "ot/zech", "zech": "ot/zech",
    "malachi": "ot/mal", "mal": "ot/mal",
    "matthew": "nt/matt", "matt": "nt/matt",
    "mark": "nt/mark", "mark": "nt/mark",
    "luke": "nt/luke", "luke": "nt/luke",
    "john": "nt/john", "john": "nt/john",
    "acts": "nt/acts", "acts": "nt/acts",
    "romans": "nt/rom", "rom": "nt/rom",
    "1 corinthians": "nt/1-cor", "1 cor": "nt/1-cor",
    "2 corinthians": "nt/2-cor", "2 cor": "nt/2-cor",
    "galatians": "nt/gal", "gal": "nt/gal",
    "ephesians": "nt/eph", "eph": "nt/eph",
    "philippians": "nt/philip", "philip": "nt/philip",
    "colossians": "nt/col", "col": "nt/col",
    "1 thessalonians": "nt/1-thes", "1 thes": "nt/1-thes",
    "2 thessalonians": "nt/2-thes", "2 thes": "nt/2-thes",
    "1 timothy": "nt/1-tim", "1 tim": "nt/1-tim",
    "2 timothy": "nt/2-tim", "2 tim": "nt/2-tim",
    "titus": "nt/titus", "titus": "nt/titus",
    "philemon": "nt/philem", "philem": "nt/philem",
    "hebrews": "nt/heb", "heb": "nt/heb",
    "james": "nt/james", "james": "nt/james",
    "1 peter": "nt/1-pet", "1 pet": "nt/1-pet",
    "2 peter": "nt/2-pet", "2 pet": "nt/2-pet",
    "1 john": "nt/1-jn", "1 jn": "nt/1-jn",
    "2 john": "nt/2-jn", "2 jn": "nt/2-jn",
    "3 john": "nt/3-jn", "3 jn": "nt/3-jn",
    "jude": "nt/jude", "jude": "nt/jude",
    "revelation": "nt/rev", "rev": "nt/rev",
    "1 nephi": "bofm/1-ne", "1 ne": "bofm/1-ne",
    "2 nephi": "bofm/2-ne", "2 ne": "bofm/2-ne",
    "jacob": "bofm/jacob", "jacob": "bofm/jacob",
    "enos": "bofm/enos", "enos": "bofm/enos",
    "jarom": "bofm/jarom", "jarom": "bofm/jarom",
    "omni": "bofm/omni", "omni": "bofm/omni",
    "words of mormon": "bofm/w-of-m", "w of m": "bofm/w-of-m",
    "mosiah": "bofm/mosiah", "mosiah": "bofm/mosiah",
    "alma": "bofm/alma", "alma": "bofm/alma",
    "helaman": "bofm/hel", "hel": "bofm/hel",
    "3 nephi": "bofm/3-ne", "3 ne": "bofm/3-ne",
    "4 nephi": "bofm/4-ne", "4 ne": "bofm/4-ne",
    "mormon": "bofm/morm", "morm": "bofm/morm",
    "ether": "bofm/ether", "ether": "bofm/ether",
    "moroni": "bofm/moro", "moro": "bofm/moro",
    "doctrine and covenants": "dc-testament/dc", "d&c": "dc-testament/dc",
    "moses": "pgp/moses", "moses": "pgp/moses",
    "abraham": "pgp/abr", "abr": "pgp/abr",
    "joseph smith--matthew": "pgp/js-m", "joseph smith matthew": "pgp/js-m", "js-m": "pgp/js-m",
    "joseph smith--history": "pgp/js-h", "joseph smith history": "pgp/js-h", "js-h": "pgp/js-h",
    "articles of faith": "pgp/a-of-f", "a of f": "pgp/a-of-f"
  },
  "title": {
    "ot/gen":      "Genesis",
    "ot/ex":       "Exodus",
    "ot/lev":      "Leviticus",
    "ot/num":      "Numbers",
    "ot/deut":     "Deuteronomy",
    "ot/josh":     "Joshua",
    "ot/judg":     "Judges",
    "ot/ruth":     "Ruth",
    "ot/1-sam":    "1 Samuel",
    "ot/2-sam":    "2 Samuel",
    "ot/1-kgs":    "1 Kings",
    "ot/2-kgs":    "2 Kings",
    "ot/1-chr":    "1 Chronicles",
    "ot/2-chr":    "2 Chronicles",
    "ot/ezra":     "Ezra",
    "ot/neh":      "Nehemiah",
    "ot/esth":     "Esther",
    "ot/job":      "Job",
    "ot/ps":       "Psalms",
    "ot/prov":     "Proverbs",
    "ot/eccl":     "Ecclesiastes",
    "ot/song":     "Song of Solomon",
    "ot/isa":      "Isaiah",
    "ot/jer":      "Jeremiah",
    "ot/lam":      "Lamentations",
    "ot/ezek":     "Ezekiel",
    "ot/dan":      "Daniel",
    "ot/hosea":    "Hosea",
    "ot/joel":     "Joel",
    "ot/amos":     "Amos",
    "ot/obad":     "Obadiah",
    "ot/jonah":    "Jonah",
    "ot/micah":    "Micah",
    "ot/nahum":    "Nahum",
    "ot/hab":      "Habakkuk",
    "ot/zeph":     "Zephaniah",
    "ot/hag":      "Haggai",
    "ot/zech":     "Zechariah",
    "ot/mal":      "Malachi",
    "nt/matt":     "Matthew",
    "nt/mark":     "Mark",
    "nt/luke":     "Luke",
    "nt/john":     "John",
    "nt/acts":     "Acts",
    "nt/rom":      "Romans",
    "nt/1-cor":    "1 Corinthians",
    "nt/2-cor":    "2 Corinthians",
    "nt/gal":      "Galatians",
    "nt/eph":      "Ephesians",
    "nt/philip":   "Philippians",
    "nt/col":      "Colossians",
    "nt/1-thes":   "1 Thessalonians",
    "nt/2-thes":   "2 Thessalonians",
    "nt/1-tim":    "1 Timothy",
    "nt/2-tim":    "2 Timothy",
    "nt/titus":    "Titus",
    "nt/philem":   "Philemon",
    "nt/heb":      "Hebrews",
    "nt/james":    "James",
    "nt/1-pet":    "1 Peter",
    "nt/2-pet":    "2 Peter",
    "nt/1-jn":     "1 John",
    "nt/2-jn":     "2 John",
    "nt/3-jn":     "3 John",
    "nt/jude":     "Jude",
    "nt/rev":      "Revelation",
    "bofm/1-ne":   "1 Nephi",
    "bofm/2-ne":   "2 Nephi",
    "bofm/jacob":  "Jacob",
    "bofm/enos":   "Enos",
    "bofm/jarom":  "Jarom",
    "bofm/omni":   "Omni",
    "bofm/w-of-m": "Words of Mormon",
    "bofm/mosiah": "Mosiah",
    "bofm/alma":   "Alma",
    "bofm/hel":    "Helaman",
    "bofm/3-ne":   "3 Nephi",
    "bofm/4-ne":   "4 Nephi",
    "bofm/morm":   "Mormon",
    "bofm/ether":  "Ether",
    "bofm/moro":   "Moroni",
    "dc-testament/dc": "Doctrine and Covenants",
    "pgp/moses":   "Moses",
    "pgp/abr":     "Abraham",
    "pgp/js-m":    "Joseph Smith&mdash;Matthew",
    "pgp/js-h":    "Joseph Smith&mdash;History",
    "pgp/a-of-f":  "Articles of Faith"
  }
}
  